…
grid <- expand_grid(penalty = seq(0, 100, by = 10),
                    mixture = seq(0, 1, by = 0.2))

results <- tune_grid(penalty_spec, 
                      preprocessor = rec,
                     grid = grid,
                     resamples = reddit_cv)

results %>% collect_metrics() %>%
  filter(.metric == "accuracy") %>%
  arrange(desc(mean))

## # A tibble: 66 × 8
##    penalty mixture .metric  .estimator  mean     n std_err .config              
##      <dbl>   <dbl> <chr>    <chr>      <dbl> <int>   <dbl> <fct>                
##  1      20     0   accuracy binary     0.672    10  0.0278 Preprocessor1_Model03
##  2      30     0   accuracy binary     0.672    10  0.0278 Preprocessor1_Model04
##  3      40     0   accuracy binary     0.672    10  0.0278 Preprocessor1_Model05
##  4      50     0   accuracy binary     0.672    10  0.0278 Preprocessor1_Model06
##  5      60     0   accuracy binary     0.672    10  0.0278 Preprocessor1_Model07
##  6      70     0   accuracy binary     0.672    10  0.0278 Preprocessor1_Model08
##  7      80     0   accuracy binary     0.672    10  0.0278 Preprocessor1_Model09
##  8      90     0   accuracy binary     0.672    10  0.0278 Preprocessor1_Model10
##  9     100     0   accuracy binary     0.672    10  0.0278 Preprocessor1_Model11
## 10      10     0.2 accuracy binary     0.672    10  0.0278 Preprocessor1_Model13
## # … with 56 more rows
…
grid <- expand_grid(penalty = seq(0, 10, by = 1),
                    mixture = seq(0, 1, by = 0.1))

results <- tune_grid(penalty_spec, 
                      preprocessor = rec,
                     grid = grid,
                     resamples = reddit_cv)

results %>% collect_metrics() %>%
  filter(.metric == "accuracy") %>%
  arrange(desc(mean))

## # A tibble: 121 × 8
##    penalty mixture .metric  .estimator  mean     n std_err .config              
##      <dbl>   <dbl> <chr>    <chr>      <dbl> <int>   <dbl> <fct>                
##  1       5     0   accuracy binary     0.68     10  0.0260 Preprocessor1_Model0…
##  2       4     0   accuracy binary     0.676    10  0.0263 Preprocessor1_Model0…
##  3       6     0   accuracy binary     0.676    10  0.0270 Preprocessor1_Model0…
##  4       7     0   accuracy binary     0.672    10  0.0278 Preprocessor1_Model0…
##  5       1     0.1 accuracy binary     0.672    10  0.0278 Preprocessor1_Model0…
##  6       2     0.1 accuracy binary     0.672    10  0.0278 Preprocessor1_Model0…
##  7       3     0.1 accuracy binary     0.672    10  0.0278 Preprocessor1_Model0…
##  8       4     0.1 accuracy binary     0.672    10  0.0278 Preprocessor1_Model0…
##  9       5     0.1 accuracy binary     0.672    10  0.0278 Preprocessor1_Model0…
## 10       6     0.1 accuracy binary     0.672    10  0.0278 Preprocessor1_Model0…
## # … with 111 more rows
…
